\relax 
\providecommand\hyper@newdestlabel[2]{}
\catcode `"\active 
\catcode `<\active 
\catcode `>\active 
\@nameuse{es@quoting}
\providecommand\HyperFirstAtBeginDocument{\AtBeginDocument}
\HyperFirstAtBeginDocument{\ifx\hyper@anchor\@undefined
\global\let\oldcontentsline\contentsline
\gdef\contentsline#1#2#3#4{\oldcontentsline{#1}{#2}{#3}}
\global\let\oldnewlabel\newlabel
\gdef\newlabel#1#2{\newlabelxx{#1}#2}
\gdef\newlabelxx#1#2#3#4#5#6{\oldnewlabel{#1}{{#2}{#3}}}
\AtEndDocument{\ifx\hyper@anchor\@undefined
\let\contentsline\oldcontentsline
\let\newlabel\oldnewlabel
\fi}
\fi}
\global\let\hyper@last\relax 
\gdef\HyperFirstAtBeginDocument#1{#1}
\providecommand\HyField@AuxAddToFields[1]{}
\providecommand\HyField@AuxAddToCoFields[2]{}
\bibstyle{IEEEtran}
\providecommand \oddpage@label [2]{}
\babel@aux{spanish}{}
\@writefile{toc}{\contentsline {chapter}{PORTADA}{I}{Doc-Start}\protected@file@percent }
\@writefile{toc}{\contentsline {chapter}{APROBACI\IeC {\'O}N DEL DIRECTOR DEL TRABAJO DE TITULACI\IeC {\'O}N}{II}{section*.1}\protected@file@percent }
\@writefile{toc}{\contentsline {chapter}{DECLARACI\IeC {\'O}N DE AUTOR\IeC {\'I}A Y CESI\IeC {\'O}N DE DERECHOS}{III}{section*.2}\protected@file@percent }
\@writefile{toc}{\contentsline {chapter}{DEDICATORIA}{IV}{section*.3}\protected@file@percent }
\@writefile{toc}{\contentsline {chapter}{AGRADECIMIENTO}{V}{section*.4}\protected@file@percent }
\@writefile{toc}{\contentsline {chapter}{\IeC {\'I}NDICE DE CONTENIDOS}{VIII}{chapter*.5}\protected@file@percent }
\@writefile{toc}{\contentsline {chapter}{LISTA DE FIGURAS}{IX}{chapter*.6}\protected@file@percent }
\@writefile{toc}{\contentsline {chapter}{LISTA DE TABLAS}{XI}{chapter*.7}\protected@file@percent }
\@writefile{toc}{\contentsline {chapter}{RESUMEN}{1}{section*.8}\protected@file@percent }
\@writefile{toc}{\contentsline {chapter}{ABSTRACT}{2}{section*.9}\protected@file@percent }
\@writefile{toc}{\contentsline {chapter}{LISTA DE ABREVIATURAS}{3}{section*.10}\protected@file@percent }
\@writefile{toc}{\contentsline {chapter}{LISTA DE S\IeC {\'I}MBOLOS}{4}{section*.11}\protected@file@percent }
\citation{sdx}
\citation{SDN_EPN}
\citation{IHSMarkit}
\citation{SDN_EPN}
\citation{informe_epn}
\@writefile{toc}{\contentsline {chapter}{INTRODUCCI\IeC {\'O}N}{5}{chapter*.12}\protected@file@percent }
\@writefile{toc}{\contentsline {chapter}{\numberline {1}Estado del Arte}{7}{chapter.1}\protected@file@percent }
\@writefile{lof}{\addvspace {10\p@ }}
\@writefile{lot}{\addvspace {10\p@ }}
\citation{RoadToSDN}
\citation{lecturesdn}
\citation{tesis_alto}
\@writefile{toc}{\contentsline {section}{\numberline {1.1}Redes Definidas por Software}{8}{section.1.1}\protected@file@percent }
\@writefile{toc}{\contentsline {subsection}{\numberline {1.1.1}Redes tradicionales y SDN}{8}{subsection.1.1.1}\protected@file@percent }
\citation{tesis_alto}
\citation{FromStattoSDN}
\citation{RoadToSDN}
\citation{tesis_alto}
\citation{tesis_alto}
\citation{tesis_epn}
\@writefile{toc}{\contentsline {subsection}{\numberline {1.1.2}Controlador SDN}{10}{subsection.1.1.2}\protected@file@percent }
\citation{SDN_arch}
\citation{RoadToSDN}
\citation{Review}
\@writefile{lof}{\contentsline {figure}{\numberline {1.1}{\ignorespaces Arquitectura SDN \vspace  {-5pt}\relax }}{11}{figure.caption.13}\protected@file@percent }
\providecommand*\caption@xref[2]{\@setref\relax\@undefined{#1}}
\newlabel{fig:arch_sdn}{{1.1}{11}{Arquitectura SDN \vspace {-5pt}\relax }{figure.caption.13}{}}
\citation{Review}
\citation{RoadToSDN}
\citation{Sushant}
\citation{openNF}
\@writefile{toc}{\contentsline {subsection}{\numberline {1.1.3}OpenFlow}{12}{subsection.1.1.3}\protected@file@percent }
\citation{openNF}
\citation{openNF}
\citation{openNF}
\@writefile{lof}{\contentsline {figure}{\numberline {1.2}{\ignorespaces Componentes de un switch OpenFlow \vspace  {-5pt}\relax }}{13}{figure.caption.14}\protected@file@percent }
\newlabel{fig:openflow}{{1.2}{13}{Componentes de un switch OpenFlow \vspace {-5pt}\relax }{figure.caption.14}{}}
\citation{openNF}
\citation{tesis_alto}
\@writefile{lot}{\contentsline {table}{\numberline {1.1}{\ignorespaces Instrucciones\relax }}{14}{table.caption.15}\protected@file@percent }
\newlabel{tb:Instrucciones}{{1.1}{14}{Instrucciones\relax }{table.caption.15}{}}
\citation{SDN_EPN}
\@writefile{lof}{\contentsline {figure}{\numberline {1.3}{\ignorespaces Flujo de paquetes a trav\IeC {\'e}s del proceso de pipeline \vspace  {-5pt}\relax }}{15}{figure.caption.16}\protected@file@percent }
\newlabel{fig:openflow}{{1.3}{15}{Flujo de paquetes a través del proceso de pipeline \vspace {-5pt}\relax }{figure.caption.16}{}}
\@writefile{toc}{\contentsline {subsection}{\numberline {1.1.4}SDN en Ecuador}{15}{subsection.1.1.4}\protected@file@percent }
\citation{tesis_alto}
\@writefile{toc}{\contentsline {section}{\numberline {1.2}Mininet}{16}{section.1.2}\protected@file@percent }
\@writefile{toc}{\contentsline {section}{\numberline {1.3}Virtualizaci\IeC {\'o}n de Redes}{16}{section.1.3}\protected@file@percent }
\citation{VNdummies}
\citation{NFV_art}
\citation{VNdummies}
\@writefile{lof}{\contentsline {figure}{\numberline {1.4}{\ignorespaces Arquitectura de la virtualizaci\IeC {\'o}n de red \vspace  {-5pt}\relax }}{18}{figure.caption.17}\protected@file@percent }
\newlabel{fig:openflow}{{1.4}{18}{Arquitectura de la virtualización de red \vspace {-5pt}\relax }{figure.caption.17}{}}
\citation{VNF}
\citation{NFV_art}
\citation{tesis_alto}
\@writefile{lof}{\contentsline {figure}{\numberline {1.5}{\ignorespaces Arquitectura de la virtualizaci\IeC {\'o}n de las funciones de red \vspace  {-5pt}\relax }}{20}{figure.caption.18}\protected@file@percent }
\newlabel{fig:openflow}{{1.5}{20}{Arquitectura de la virtualización de las funciones de red \vspace {-5pt}\relax }{figure.caption.18}{}}
\@writefile{toc}{\contentsline {subsection}{\numberline {1.3.1}Virtualizaci\IeC {\'o}n de los switches}{20}{subsection.1.3.1}\protected@file@percent }
\@writefile{toc}{\contentsline {chapter}{\numberline {2}Descripci\IeC {\'o}n de la implementaci\IeC {\'o}n}{21}{chapter.2}\protected@file@percent }
\@writefile{lof}{\addvspace {10\p@ }}
\@writefile{lot}{\addvspace {10\p@ }}
\@writefile{toc}{\contentsline {subsection}{\numberline {2.0.1}Selecci\IeC {\'o}n del controlador}{22}{subsection.2.0.1}\protected@file@percent }
\@writefile{toc}{\contentsline {subsection}{\numberline {2.0.2}Entorno de desarrollo}{23}{subsection.2.0.2}\protected@file@percent }
\@writefile{toc}{\contentsline {chapter}{\numberline {3}Pruebas y Resultados}{25}{chapter.3}\protected@file@percent }
\@writefile{lof}{\addvspace {10\p@ }}
\@writefile{lot}{\addvspace {10\p@ }}
\@writefile{toc}{\contentsline {chapter}{CONCLUSIONES}{27}{chapter*.19}\protected@file@percent }
\@writefile{toc}{\contentsline {chapter}{RECOMENDACIONES}{29}{chapter*.20}\protected@file@percent }
\@writefile{toc}{\contentsline {chapter}{ANEXOS}{31}{chapter*.21}\protected@file@percent }
\citation{utpl2008campus}
\@writefile{toc}{\contentsline {section}{Paso 1: Preparaci\IeC {\'o}n}{32}{section*.22}\protected@file@percent }
\@writefile{lof}{\contentsline {figure}{\numberline {3.1}{\ignorespaces Configraci\IeC {\'o}n de x11 forwarding en putty\relax }}{32}{figure.caption.23}\protected@file@percent }
\newlabel{fig:header_fields}{{3.1}{32}{Configración de x11 forwarding en putty\relax }{figure.caption.23}{}}
\citation{utpl2008campus}
\@writefile{lof}{\contentsline {figure}{\numberline {3.2}{\ignorespaces Configraci\IeC {\'o}n de x11 forwarding en putty\relax }}{33}{figure.caption.24}\protected@file@percent }
\newlabel{fig:header_fields}{{3.2}{33}{Configración de x11 forwarding en putty\relax }{figure.caption.24}{}}
\citation{utpl2008campus}
\@writefile{lof}{\contentsline {figure}{\numberline {3.3}{\ignorespaces Campos de cabecera y correspondencia \vspace  {-5pt}\relax }}{35}{figure.caption.25}\protected@file@percent }
\newlabel{fig:header_fields}{{3.3}{35}{Campos de cabecera y correspondencia \vspace {-5pt}\relax }{figure.caption.25}{}}
\citation{utpl2008campus}
\@writefile{lot}{\contentsline {table}{\numberline {3.1}{\ignorespaces Mensajes controlador-switch\relax }}{36}{table.caption.26}\protected@file@percent }
\newlabel{tb:Ejemplo}{{3.1}{36}{Mensajes controlador-switch\relax }{table.caption.26}{}}
\@writefile{lot}{\contentsline {table}{\numberline {3.2}{\ignorespaces Mensajes controlador-switch\relax }}{36}{table.caption.27}\protected@file@percent }
\newlabel{tb:Ejemplo}{{3.2}{36}{Mensajes controlador-switch\relax }{table.caption.27}{}}
\@writefile{lof}{\contentsline {figure}{\numberline {3.4}{\ignorespaces Configraci\IeC {\'o}n de x11 forwarding en putty\relax }}{37}{figure.caption.28}\protected@file@percent }
\newlabel{fig:header_fields}{{3.4}{37}{Configración de x11 forwarding en putty\relax }{figure.caption.28}{}}
\@writefile{lot}{\contentsline {table}{\numberline {3.3}{\ignorespaces Mensajes controlador-switch\relax }}{38}{table.caption.29}\protected@file@percent }
\newlabel{tb:Ejemplo}{{3.3}{38}{Mensajes controlador-switch\relax }{table.caption.29}{}}
\@writefile{lot}{\contentsline {table}{\numberline {3.4}{\ignorespaces Mensajes controlador-switch\relax }}{38}{table.caption.30}\protected@file@percent }
\newlabel{tb:Ejemplo}{{3.4}{38}{Mensajes controlador-switch\relax }{table.caption.30}{}}
\@writefile{lot}{\contentsline {table}{\numberline {3.5}{\ignorespaces Mensajes controlador-switch\relax }}{39}{table.caption.31}\protected@file@percent }
\newlabel{tb:Ejemplo}{{3.5}{39}{Mensajes controlador-switch\relax }{table.caption.31}{}}
\@writefile{lof}{\contentsline {figure}{\numberline {3.5}{\ignorespaces Sesi\IeC {\'o}n duplicada en putty\relax }}{39}{figure.caption.32}\protected@file@percent }
\newlabel{fig:topo1}{{3.5}{39}{Sesión duplicada en putty\relax }{figure.caption.32}{}}
\@writefile{lof}{\contentsline {figure}{\numberline {3.6}{\ignorespaces Creaci\IeC {\'o}n de topolog\IeC {\'\i }a en Mininet\relax }}{40}{figure.caption.33}\protected@file@percent }
\newlabel{fig:topo1}{{3.6}{40}{Creación de topología en Mininet\relax }{figure.caption.33}{}}
\@writefile{lof}{\contentsline {figure}{\numberline {3.7}{\ignorespaces Comandos Mininet para obtener informaci\IeC {\'o}n de la red\relax }}{40}{figure.caption.34}\protected@file@percent }
\newlabel{fig:topo1}{{3.7}{40}{Comandos Mininet para obtener información de la red\relax }{figure.caption.34}{}}
\@writefile{lof}{\contentsline {figure}{\numberline {3.8}{\ignorespaces Mensajes OpenFlow\relax }}{41}{figure.caption.35}\protected@file@percent }
\newlabel{fig:topo1}{{3.8}{41}{Mensajes OpenFlow\relax }{figure.caption.35}{}}
\@writefile{lof}{\contentsline {figure}{\numberline {3.9}{\ignorespaces Respuesta del switch\relax }}{42}{figure.caption.36}\protected@file@percent }
\newlabel{fig:topo1}{{3.9}{42}{Respuesta del switch\relax }{figure.caption.36}{}}
\@writefile{lof}{\contentsline {figure}{\numberline {3.10}{\ignorespaces Mensajes arp\relax }}{42}{figure.caption.37}\protected@file@percent }
\newlabel{fig:topo1}{{3.10}{42}{Mensajes arp\relax }{figure.caption.37}{}}
\@writefile{lof}{\contentsline {figure}{\numberline {3.11}{\ignorespaces Mensajes arp\relax }}{43}{figure.caption.38}\protected@file@percent }
\newlabel{fig:topo1}{{3.11}{43}{Mensajes arp\relax }{figure.caption.38}{}}
\@writefile{lof}{\contentsline {figure}{\numberline {3.12}{\ignorespaces Mensajes arp\relax }}{44}{figure.caption.39}\protected@file@percent }
\newlabel{fig:topo1}{{3.12}{44}{Mensajes arp\relax }{figure.caption.39}{}}
\@writefile{toc}{\contentsline {section}{\textbf  {Paso 2: Creaci\IeC {\'o}n de redes Mininet}}{44}{figure.caption.39}\protected@file@percent }
\@writefile{lot}{\contentsline {table}{\numberline {3.6}{\ignorespaces Par\IeC {\'a}metros mininet\relax }}{45}{table.caption.40}\protected@file@percent }
\newlabel{tab:table1}{{3.6}{45}{Parámetros mininet\relax }{table.caption.40}{}}
\@writefile{lof}{\contentsline {figure}{\numberline {3.13}{\ignorespaces Topolog\IeC {\'\i }a minimal en mininet\relax }}{45}{figure.caption.41}\protected@file@percent }
\newlabel{fig:topo1}{{3.13}{45}{Topología minimal en mininet\relax }{figure.caption.41}{}}
\@writefile{lof}{\contentsline {figure}{\numberline {3.14}{\ignorespaces Topolog\IeC {\'\i }a lineal en mininet\relax }}{47}{figure.caption.42}\protected@file@percent }
\newlabel{fig:topo2}{{3.14}{47}{Topología lineal en mininet\relax }{figure.caption.42}{}}
\@writefile{lof}{\contentsline {figure}{\numberline {3.15}{\ignorespaces Topolog\IeC {\'\i }a en \IeC {\'a}rbol en mininet\relax }}{48}{figure.caption.43}\protected@file@percent }
\newlabel{fig:topo13}{{3.15}{48}{Topología en árbol en mininet\relax }{figure.caption.43}{}}
\newlabel{fig:header_fields}{{\caption@xref {fig:header_fields}{ on input line 201}}{49}{\textbf {Paso 2: Creación de redes Mininet}}{figure.caption.44}{}}
\newlabel{fig:topo13}{{\caption@xref {fig:topo13}{ on input line 212}}{49}{\textbf {Paso 2: Creación de redes Mininet}}{figure.caption.45}{}}
\newlabel{fig:topo13}{{\caption@xref {fig:topo13}{ on input line 221}}{49}{\textbf {Paso 2: Creación de redes Mininet}}{figure.caption.46}{}}
\newlabel{fig:topo13}{{\caption@xref {fig:topo13}{ on input line 232}}{50}{\textbf {Paso 2: Creación de redes Mininet}}{figure.caption.47}{}}
\citation{*}
\bibdata{BibliographyUTPL}
\newlabel{fig:topo13}{{\caption@xref {fig:topo13}{ on input line 245}}{53}{\textbf {Paso 2: Creación de redes Mininet}}{figure.caption.48}{}}
\bibcite{Research}{1}
\bibcite{sdx}{2}
\bibcite{SDN_EPN}{3}
\bibcite{IHSMarkit}{4}
\bibcite{informe_epn}{5}
\bibcite{RoadToSDN}{6}
\bibcite{lecturesdn}{7}
\bibcite{tesis_alto}{8}
\bibcite{FromStattoSDN}{9}
\bibcite{tesis_epn}{10}
\bibcite{SDN_arch}{11}
\bibcite{Review}{12}
\bibcite{Sushant}{13}
\bibcite{openNF}{14}
\bibcite{VNdummies}{15}
\bibcite{NFV_art}{16}
\bibcite{VNF}{17}
\bibcite{Hussain}{18}
\bibcite{Valencia}{19}
\bibcite{Bindhu}{20}
\bibcite{Gintert}{21}
\bibcite{rcwireless}{22}
\bibcite{forces}{23}
\bibcite{history_openF}{24}
\bibcite{yi2009investigation}{25}
\bibcite{ramezani2007ofdm}{26}
\bibcite{SDN}{27}
\@writefile{toc}{\contentsline {chapter}{BIBLIOGRAF\IeC {\'I}A}{57}{chapter*.49}\protected@file@percent }
