\babel@toc {spanish}{}
\contentsline {chapter}{PORTADA}{I}{Doc-Start}% 
\contentsline {chapter}{APROBACI\IeC {\'O}N DEL DIRECTOR DEL TRABAJO DE TITULACI\IeC {\'O}N}{II}{section*.1}% 
\contentsline {chapter}{DECLARACI\IeC {\'O}N DE AUTOR\IeC {\'I}A Y CESI\IeC {\'O}N DE DERECHOS}{III}{section*.2}% 
\contentsline {chapter}{DEDICATORIA}{IV}{section*.3}% 
\contentsline {chapter}{AGRADECIMIENTO}{V}{section*.4}% 
\contentsline {chapter}{\IeC {\'I}NDICE DE CONTENIDOS}{VIII}{chapter*.5}% 
\contentsline {chapter}{LISTA DE FIGURAS}{IX}{chapter*.6}% 
\contentsline {chapter}{LISTA DE TABLAS}{XI}{chapter*.7}% 
\contentsline {chapter}{RESUMEN}{1}{section*.8}% 
\contentsline {chapter}{ABSTRACT}{2}{section*.9}% 
\contentsline {chapter}{LISTA DE ABREVIATURAS}{3}{section*.10}% 
\contentsline {chapter}{LISTA DE S\IeC {\'I}MBOLOS}{4}{section*.11}% 
\contentsline {chapter}{INTRODUCCI\IeC {\'O}N}{5}{chapter*.12}% 
\contentsline {chapter}{\numberline {1}Estado del Arte}{7}{chapter.1}% 
\contentsline {section}{\numberline {1.1}Redes Definidas por Software}{8}{section.1.1}% 
\contentsline {subsection}{\numberline {1.1.1}Redes tradicionales y SDN}{8}{subsection.1.1.1}% 
\contentsline {subsection}{\numberline {1.1.2}Controlador SDN}{10}{subsection.1.1.2}% 
\contentsline {subsection}{\numberline {1.1.3}OpenFlow}{12}{subsection.1.1.3}% 
\contentsline {subsection}{\numberline {1.1.4}SDN en Ecuador}{15}{subsection.1.1.4}% 
\contentsline {section}{\numberline {1.2}Mininet}{16}{section.1.2}% 
\contentsline {section}{\numberline {1.3}Virtualizaci\IeC {\'o}n de Redes}{16}{section.1.3}% 
\contentsline {subsection}{\numberline {1.3.1}Virtualizaci\IeC {\'o}n de los switches}{20}{subsection.1.3.1}% 
\contentsline {chapter}{\numberline {2}Descripci\IeC {\'o}n de la implementaci\IeC {\'o}n}{23}{chapter.2}% 
\contentsline {subsection}{\numberline {2.0.1}Selecci\IeC {\'o}n del controlador}{24}{subsection.2.0.1}% 
\contentsline {subsection}{\numberline {2.0.2}Entorno de desarrollo}{25}{subsection.2.0.2}% 
\contentsline {chapter}{\numberline {3}Pruebas y Resultados}{27}{chapter.3}% 
\contentsline {chapter}{CONCLUSIONES}{29}{chapter*.19}% 
\contentsline {chapter}{RECOMENDACIONES}{31}{chapter*.20}% 
\contentsline {chapter}{ANEXOS}{33}{chapter*.21}% 
\contentsline {section}{Paso 1: Preparaci\IeC {\'o}n}{34}{section*.22}% 
\contentsline {section}{\textbf {Paso 2: Creaci\IeC {\'o}n de redes Mininet}}{47}{figure.caption.39}% 
\contentsline {chapter}{BIBLIOGRAF\IeC {\'I}A}{61}{chapter*.49}% 
