This is BibTeX, Version 0.99dThe top-level auxiliary file: main_Thesis.aux
The style file: IEEEtran.bst
Database file #1: BibliographyUTPL.bib
Warning--I'm ignoring ramezani2007ofdm's extra "note" field
--line 177 of file BibliographyUTPL.bib
Warning--I'm ignoring Sushant's extra "note" field
--line 193 of file BibliographyUTPL.bib
I was expecting a `,' or a `}'---line 209 of file BibliographyUTPL.bib
 : @article{Review 
 :                 NOS,
I'm skipping whatever remains of this entry
Warning--entry type for "tesis_epn" isn't style-file defined
--line 222 of file BibliographyUTPL.bib
I was expecting a `,' or a `}'---line 285 of file BibliographyUTPL.bib
 : @book{SDN 
 :           OPF,
I'm skipping whatever remains of this entry
Warning--I didn't find a database entry for "utpl2008campus"
-- IEEEtran.bst version 1.14 (2015/08/26) by Michael Shell.
-- http://www.michaelshell.org/tex/ieeetran/bibtex/
-- See the "IEEEtran_bst_HOWTO.pdf" manual for usage information.
Warning--empty author in Review
Warning--empty title in Review
Warning--empty journal in Review
Warning--empty year in Review
Warning--empty author and editor in SDN
Warning--empty title in SDN
Warning--missing publisher in SDN
Warning--empty year in SDN

Done.
(There were 2 error messages)
