\babel@toc {spanish}{}
\contentsline {chapter}{DECLARACI\IeC {\'O}N DE AUTOR\IeC {\'I}A Y CESI\IeC {\'O}N DE DERECHOS}{1}{section*.1}% 
\contentsline {chapter}{DEDICATORIA}{2}{section*.2}% 
\contentsline {chapter}{AGRADECIMIENTO}{3}{section*.3}% 
\contentsline {chapter}{\IeC {\'I}NDICE DE CONTENIDOS}{6}{chapter*.4}% 
\contentsline {chapter}{LISTA DE FIGURAS}{7}{chapter*.5}% 
\contentsline {chapter}{LISTA DE TABLAS}{9}{chapter*.6}% 
\contentsline {chapter}{RESUMEN}{10}{section*.7}% 
\contentsline {chapter}{LISTA DE S\IeC {\'I}MBOLOS}{\@c \c@page }{section*.9}% 
\contentsline {chapter}{INTRODUCCI\IeC {\'O}N}{\@c \c@page }{chapter*.10}% 
\contentsline {chapter}{\numberline {1}Estado del Arte}{\@c \c@page }{chapter.1}% 
\contentsline {section}{\numberline {1.1}Redes Definidas por Software}{\@c \c@page }{section.1.1}% 
\contentsline {subsection}{\numberline {1.1.1}Redes tradicionales y SDN}{\@c \c@page }{subsection.1.1.1}% 
\contentsline {subsection}{\numberline {1.1.2}Controlador SDN}{\@c \c@page }{subsection.1.1.2}% 
\contentsline {subsection}{\numberline {1.1.3}OpenFlow}{\@c \c@page }{subsection.1.1.3}% 
\contentsline {subsection}{\numberline {1.1.4}SDN en Ecuador}{\@c \c@page }{subsection.1.1.4}% 
\contentsline {section}{\numberline {1.2}Mininet}{\@c \c@page }{section.1.2}% 
\contentsline {section}{\numberline {1.3}Virtualizaci\IeC {\'o}n de Redes}{\@c \c@page }{section.1.3}% 
\contentsline {subsection}{\numberline {1.3.1}Virtualizaci\IeC {\'o}n de los switches}{\@c \c@page }{subsection.1.3.1}% 
\contentsline {chapter}{\numberline {2}Descripci\IeC {\'o}n de la implementaci\IeC {\'o}n}{\@c \c@page }{chapter.2}% 
\contentsline {subsection}{\numberline {2.0.1}Selecci\IeC {\'o}n del controlador}{\@c \c@page }{subsection.2.0.1}% 
\contentsline {subsection}{\numberline {2.0.2}Entorno de desarrollo}{\@c \c@page }{subsection.2.0.2}% 
\contentsline {chapter}{\numberline {3}Pruebas y Resultados}{\@c \c@page }{chapter.3}% 
\contentsline {chapter}{CONCLUSIONES}{\@c \c@page }{chapter*.17}% 
\contentsline {chapter}{RECOMENDACIONES}{\@c \c@page }{chapter*.18}% 
\contentsline {chapter}{ANEXOS}{\@c \c@page }{chapter*.19}% 
\contentsline {section}{Paso 1: Preparaci\IeC {\'o}n}{\@c \c@page }{section*.20}% 
\contentsline {section}{\textbf {Paso 2: Creaci\IeC {\'o}n de redes Mininet}}{\@c \c@page }{figure.caption.37}% 
\contentsline {chapter}{BIBLIOGRAF\IeC {\'I}A}{\@c \c@page }{chapter*.47}% 
