\relax 
\providecommand\hyper@newdestlabel[2]{}
\catcode `"\active 
\catcode `<\active 
\catcode `>\active 
\@nameuse{es@quoting}
\providecommand\HyperFirstAtBeginDocument{\AtBeginDocument}
\HyperFirstAtBeginDocument{\ifx\hyper@anchor\@undefined
\global\let\oldcontentsline\contentsline
\gdef\contentsline#1#2#3#4{\oldcontentsline{#1}{#2}{#3}}
\global\let\oldnewlabel\newlabel
\gdef\newlabel#1#2{\newlabelxx{#1}#2}
\gdef\newlabelxx#1#2#3#4#5#6{\oldnewlabel{#1}{{#2}{#3}}}
\AtEndDocument{\ifx\hyper@anchor\@undefined
\let\contentsline\oldcontentsline
\let\newlabel\oldnewlabel
\fi}
\fi}
\global\let\hyper@last\relax 
\gdef\HyperFirstAtBeginDocument#1{#1}
\providecommand\HyField@AuxAddToFields[1]{}
\providecommand\HyField@AuxAddToCoFields[2]{}
\bibstyle{apalike}
\providecommand \oddpage@label [2]{}
\babel@aux{spanish}{}
\@writefile{toc}{\contentsline {chapter}{DECLARACI\IeC {\'O}N DE AUTOR\IeC {\'I}A Y CESI\IeC {\'O}N DE DERECHOS}{1}{section*.1}\protected@file@percent }
\@writefile{toc}{\contentsline {chapter}{DEDICATORIA}{2}{section*.2}\protected@file@percent }
\@writefile{toc}{\contentsline {chapter}{AGRADECIMIENTO}{3}{section*.3}\protected@file@percent }
\@writefile{toc}{\contentsline {chapter}{\IeC {\'I}NDICE DE CONTENIDOS}{6}{chapter*.4}\protected@file@percent }
\@writefile{toc}{\contentsline {chapter}{LISTA DE FIGURAS}{7}{chapter*.5}\protected@file@percent }
\@writefile{toc}{\contentsline {chapter}{LISTA DE TABLAS}{9}{chapter*.6}\protected@file@percent }
\@writefile{toc}{\contentsline {chapter}{RESUMEN}{10}{section*.7}\protected@file@percent }
\@writefile{toc}{\contentsline {chapter}{LISTA DE S\IeC {\'I}MBOLOS}{\@c \c@page }{section*.9}\protected@file@percent }
\citation{sdx}
\citation{SDN_EPN}
\citation{IHSMarkit}
\citation{SDN_EPN}
\citation{informe_epn}
\@writefile{toc}{\contentsline {chapter}{INTRODUCCI\IeC {\'O}N}{\@c \c@page }{chapter*.10}\protected@file@percent }
\@writefile{toc}{\contentsline {chapter}{\numberline {1}Estado del Arte}{\@c \c@page }{chapter.1}\protected@file@percent }
\@writefile{lof}{\addvspace {10\p@ }}
\@writefile{lot}{\addvspace {10\p@ }}
\citation{RoadToSDN}
\citation{lecturesdn}
\citation{tesis_alto}
\@writefile{toc}{\contentsline {section}{\numberline {1.1}Redes Definidas por Software}{\@c \c@page }{section.1.1}\protected@file@percent }
\@writefile{toc}{\contentsline {subsection}{\numberline {1.1.1}Redes tradicionales y SDN}{\@c \c@page }{subsection.1.1.1}\protected@file@percent }
\citation{tesis_alto}
\citation{FromStattoSDN}
\citation{RoadToSDN}
\citation{tesis_alto}
\citation{tesis_alto}
\@writefile{toc}{\contentsline {subsection}{\numberline {1.1.2}Controlador SDN}{\@c \c@page }{subsection.1.1.2}\protected@file@percent }
\@writefile{lof}{\contentsline {figure}{\numberline {1.1}{\ignorespaces Arquitectura SDN \vspace  {-5pt}\relax }}{\@c \c@page }{figure.caption.11}\protected@file@percent }
\providecommand*\caption@xref[2]{\@setref\relax\@undefined{#1}}
\newlabel{fig:arch_sdn}{{1.1}{\@c \c@page }{Arquitectura SDN \vspace {-5pt}\relax }{figure.caption.11}{}}
\citation{tesis_epn}
\citation{SDN_arch}
\citation{RoadToSDN}
\citation{Review}
\citation{Review}
\citation{RoadToSDN}
\citation{Sushant}
\citation{openNF}
\citation{openNF}
\@writefile{toc}{\contentsline {subsection}{\numberline {1.1.3}OpenFlow}{\@c \c@page }{subsection.1.1.3}\protected@file@percent }
\@writefile{lof}{\contentsline {figure}{\numberline {1.2}{\ignorespaces Componentes de un switch OpenFlow \vspace  {-5pt}\relax }}{\@c \c@page }{figure.caption.12}\protected@file@percent }
\newlabel{fig:openflow}{{1.2}{\@c \c@page }{Componentes de un switch OpenFlow \vspace {-5pt}\relax }{figure.caption.12}{}}
\citation{openNF}
\citation{openNF}
\@writefile{lot}{\contentsline {table}{\numberline {1.1}{\ignorespaces Instrucciones\relax }}{\@c \c@page }{table.caption.13}\protected@file@percent }
\newlabel{tb:Instrucciones}{{1.1}{\@c \c@page }{Instrucciones\relax }{table.caption.13}{}}
\citation{openNF}
\citation{tesis_alto}
\citation{SDN_EPN}
\@writefile{lof}{\contentsline {figure}{\numberline {1.3}{\ignorespaces Flujo de paquetes a trav\IeC {\'e}s del proceso de pipeline \vspace  {-5pt}\relax }}{\@c \c@page }{figure.caption.14}\protected@file@percent }
\newlabel{fig:openflow}{{1.3}{\@c \c@page }{Flujo de paquetes a través del proceso de pipeline \vspace {-5pt}\relax }{figure.caption.14}{}}
\@writefile{toc}{\contentsline {subsection}{\numberline {1.1.4}SDN en Ecuador}{\@c \c@page }{subsection.1.1.4}\protected@file@percent }
\@writefile{toc}{\contentsline {section}{\numberline {1.2}Mininet}{\@c \c@page }{section.1.2}\protected@file@percent }
\citation{tesis_alto}
\citation{VNdummies}
\@writefile{toc}{\contentsline {section}{\numberline {1.3}Virtualizaci\IeC {\'o}n de Redes}{\@c \c@page }{section.1.3}\protected@file@percent }
\citation{NFV_art}
\citation{VNdummies}
\@writefile{lof}{\contentsline {figure}{\numberline {1.4}{\ignorespaces Arquitectura de la virtualizaci\IeC {\'o}n de red \vspace  {-5pt}\relax }}{\@c \c@page }{figure.caption.15}\protected@file@percent }
\newlabel{fig:openflow}{{1.4}{\@c \c@page }{Arquitectura de la virtualización de red \vspace {-5pt}\relax }{figure.caption.15}{}}
\citation{VNF}
\citation{NFV_art}
\citation{tesis_alto}
\@writefile{lof}{\contentsline {figure}{\numberline {1.5}{\ignorespaces Arquitectura de la virtualizaci\IeC {\'o}n de las funciones de red \vspace  {-5pt}\relax }}{\@c \c@page }{figure.caption.16}\protected@file@percent }
\newlabel{fig:openflow}{{1.5}{\@c \c@page }{Arquitectura de la virtualización de las funciones de red \vspace {-5pt}\relax }{figure.caption.16}{}}
\@writefile{toc}{\contentsline {subsection}{\numberline {1.3.1}Virtualizaci\IeC {\'o}n de los switches}{\@c \c@page }{subsection.1.3.1}\protected@file@percent }
\@writefile{toc}{\contentsline {chapter}{\numberline {2}Descripci\IeC {\'o}n de la implementaci\IeC {\'o}n}{\@c \c@page }{chapter.2}\protected@file@percent }
\@writefile{lof}{\addvspace {10\p@ }}
\@writefile{lot}{\addvspace {10\p@ }}
\@writefile{toc}{\contentsline {subsection}{\numberline {2.0.1}Selecci\IeC {\'o}n del controlador}{\@c \c@page }{subsection.2.0.1}\protected@file@percent }
\@writefile{toc}{\contentsline {subsection}{\numberline {2.0.2}Entorno de desarrollo}{\@c \c@page }{subsection.2.0.2}\protected@file@percent }
\@writefile{toc}{\contentsline {chapter}{\numberline {3}Pruebas y Resultados}{\@c \c@page }{chapter.3}\protected@file@percent }
\@writefile{lof}{\addvspace {10\p@ }}
\@writefile{lot}{\addvspace {10\p@ }}
\@writefile{toc}{\contentsline {chapter}{CONCLUSIONES}{\@c \c@page }{chapter*.17}\protected@file@percent }
\@writefile{toc}{\contentsline {chapter}{RECOMENDACIONES}{\@c \c@page }{chapter*.18}\protected@file@percent }
\@writefile{toc}{\contentsline {chapter}{ANEXOS}{\@c \c@page }{chapter*.19}\protected@file@percent }
\citation{utpl2008campus}
\@writefile{toc}{\contentsline {section}{Paso 1: Preparaci\IeC {\'o}n}{\@c \c@page }{section*.20}\protected@file@percent }
\@writefile{lof}{\contentsline {figure}{\numberline {3.1}{\ignorespaces Configraci\IeC {\'o}n de x11 forwarding en putty\relax }}{\@c \c@page }{figure.caption.21}\protected@file@percent }
\newlabel{fig:header_fields}{{3.1}{\@c \c@page }{Configración de x11 forwarding en putty\relax }{figure.caption.21}{}}
\citation{utpl2008campus}
\@writefile{lof}{\contentsline {figure}{\numberline {3.2}{\ignorespaces Configraci\IeC {\'o}n de x11 forwarding en putty\relax }}{\@c \c@page }{figure.caption.22}\protected@file@percent }
\newlabel{fig:header_fields}{{3.2}{\@c \c@page }{Configración de x11 forwarding en putty\relax }{figure.caption.22}{}}
\citation{utpl2008campus}
\@writefile{lof}{\contentsline {figure}{\numberline {3.3}{\ignorespaces Campos de cabecera y correspondencia \vspace  {-5pt}\relax }}{\@c \c@page }{figure.caption.23}\protected@file@percent }
\newlabel{fig:header_fields}{{3.3}{\@c \c@page }{Campos de cabecera y correspondencia \vspace {-5pt}\relax }{figure.caption.23}{}}
\@writefile{lot}{\contentsline {table}{\numberline {3.1}{\ignorespaces Mensajes controlador-switch\relax }}{\@c \c@page }{table.caption.24}\protected@file@percent }
\newlabel{tb:Ejemplo}{{3.1}{\@c \c@page }{Mensajes controlador-switch\relax }{table.caption.24}{}}
\citation{utpl2008campus}
\@writefile{lot}{\contentsline {table}{\numberline {3.2}{\ignorespaces Mensajes controlador-switch\relax }}{\@c \c@page }{table.caption.25}\protected@file@percent }
\newlabel{tb:Ejemplo}{{3.2}{\@c \c@page }{Mensajes controlador-switch\relax }{table.caption.25}{}}
\@writefile{lof}{\contentsline {figure}{\numberline {3.4}{\ignorespaces Configraci\IeC {\'o}n de x11 forwarding en putty\relax }}{\@c \c@page }{figure.caption.26}\protected@file@percent }
\newlabel{fig:header_fields}{{3.4}{\@c \c@page }{Configración de x11 forwarding en putty\relax }{figure.caption.26}{}}
\@writefile{lot}{\contentsline {table}{\numberline {3.3}{\ignorespaces Mensajes controlador-switch\relax }}{\@c \c@page }{table.caption.27}\protected@file@percent }
\newlabel{tb:Ejemplo}{{3.3}{\@c \c@page }{Mensajes controlador-switch\relax }{table.caption.27}{}}
\@writefile{lot}{\contentsline {table}{\numberline {3.4}{\ignorespaces Mensajes controlador-switch\relax }}{\@c \c@page }{table.caption.28}\protected@file@percent }
\newlabel{tb:Ejemplo}{{3.4}{\@c \c@page }{Mensajes controlador-switch\relax }{table.caption.28}{}}
\@writefile{lot}{\contentsline {table}{\numberline {3.5}{\ignorespaces Mensajes controlador-switch\relax }}{\@c \c@page }{table.caption.29}\protected@file@percent }
\newlabel{tb:Ejemplo}{{3.5}{\@c \c@page }{Mensajes controlador-switch\relax }{table.caption.29}{}}
\@writefile{lof}{\contentsline {figure}{\numberline {3.5}{\ignorespaces Sesi\IeC {\'o}n duplicada en putty\relax }}{\@c \c@page }{figure.caption.30}\protected@file@percent }
\newlabel{fig:topo1}{{3.5}{\@c \c@page }{Sesión duplicada en putty\relax }{figure.caption.30}{}}
\@writefile{lof}{\contentsline {figure}{\numberline {3.6}{\ignorespaces Creaci\IeC {\'o}n de topolog\IeC {\'\i }a en Mininet\relax }}{\@c \c@page }{figure.caption.31}\protected@file@percent }
\newlabel{fig:topo1}{{3.6}{\@c \c@page }{Creación de topología en Mininet\relax }{figure.caption.31}{}}
\@writefile{lof}{\contentsline {figure}{\numberline {3.7}{\ignorespaces Comandos Mininet para obtener informaci\IeC {\'o}n de la red\relax }}{\@c \c@page }{figure.caption.32}\protected@file@percent }
\newlabel{fig:topo1}{{3.7}{\@c \c@page }{Comandos Mininet para obtener información de la red\relax }{figure.caption.32}{}}
\@writefile{lof}{\contentsline {figure}{\numberline {3.8}{\ignorespaces Mensajes OpenFlow\relax }}{\@c \c@page }{figure.caption.33}\protected@file@percent }
\newlabel{fig:topo1}{{3.8}{\@c \c@page }{Mensajes OpenFlow\relax }{figure.caption.33}{}}
\@writefile{lof}{\contentsline {figure}{\numberline {3.9}{\ignorespaces Respuesta del switch\relax }}{\@c \c@page }{figure.caption.34}\protected@file@percent }
\newlabel{fig:topo1}{{3.9}{\@c \c@page }{Respuesta del switch\relax }{figure.caption.34}{}}
\@writefile{lof}{\contentsline {figure}{\numberline {3.10}{\ignorespaces Mensajes arp\relax }}{\@c \c@page }{figure.caption.35}\protected@file@percent }
\newlabel{fig:topo1}{{3.10}{\@c \c@page }{Mensajes arp\relax }{figure.caption.35}{}}
\@writefile{lof}{\contentsline {figure}{\numberline {3.11}{\ignorespaces Mensajes arp\relax }}{\@c \c@page }{figure.caption.36}\protected@file@percent }
\newlabel{fig:topo1}{{3.11}{\@c \c@page }{Mensajes arp\relax }{figure.caption.36}{}}
\@writefile{lof}{\contentsline {figure}{\numberline {3.12}{\ignorespaces Mensajes arp\relax }}{\@c \c@page }{figure.caption.37}\protected@file@percent }
\newlabel{fig:topo1}{{3.12}{\@c \c@page }{Mensajes arp\relax }{figure.caption.37}{}}
\@writefile{toc}{\contentsline {section}{\textbf  {Paso 2: Creaci\IeC {\'o}n de redes Mininet}}{\@c \c@page }{figure.caption.37}\protected@file@percent }
\@writefile{lot}{\contentsline {table}{\numberline {3.6}{\ignorespaces Par\IeC {\'a}metros mininet\relax }}{\@c \c@page }{table.caption.38}\protected@file@percent }
\newlabel{tab:table1}{{3.6}{\@c \c@page }{Parámetros mininet\relax }{table.caption.38}{}}
\@writefile{lof}{\contentsline {figure}{\numberline {3.13}{\ignorespaces Topolog\IeC {\'\i }a minimal en mininet\relax }}{\@c \c@page }{figure.caption.39}\protected@file@percent }
\newlabel{fig:topo1}{{3.13}{\@c \c@page }{Topología minimal en mininet\relax }{figure.caption.39}{}}
\@writefile{lof}{\contentsline {figure}{\numberline {3.14}{\ignorespaces Topolog\IeC {\'\i }a lineal en mininet\relax }}{\@c \c@page }{figure.caption.40}\protected@file@percent }
\newlabel{fig:topo2}{{3.14}{\@c \c@page }{Topología lineal en mininet\relax }{figure.caption.40}{}}
\@writefile{lof}{\contentsline {figure}{\numberline {3.15}{\ignorespaces Topolog\IeC {\'\i }a en \IeC {\'a}rbol en mininet\relax }}{\@c \c@page }{figure.caption.41}\protected@file@percent }
\newlabel{fig:topo13}{{3.15}{\@c \c@page }{Topología en árbol en mininet\relax }{figure.caption.41}{}}
\newlabel{fig:header_fields}{{\caption@xref {fig:header_fields}{ on input line 201}}{\@c \c@page }{\textbf {Paso 2: Creación de redes Mininet}}{figure.caption.42}{}}
\newlabel{fig:topo13}{{\caption@xref {fig:topo13}{ on input line 212}}{\@c \c@page }{\textbf {Paso 2: Creación de redes Mininet}}{figure.caption.43}{}}
\newlabel{fig:topo13}{{\caption@xref {fig:topo13}{ on input line 221}}{\@c \c@page }{\textbf {Paso 2: Creación de redes Mininet}}{figure.caption.44}{}}
\newlabel{fig:topo13}{{\caption@xref {fig:topo13}{ on input line 232}}{\@c \c@page }{\textbf {Paso 2: Creación de redes Mininet}}{figure.caption.45}{}}
\citation{*}
\bibdata{BibliographyUTPL}
\newlabel{fig:topo13}{{\caption@xref {fig:topo13}{ on input line 245}}{\@c \c@page }{\textbf {Paso 2: Creación de redes Mininet}}{figure.caption.46}{}}
\bibcite{Research}{1}
\bibcite{sdx}{2}
\bibcite{SDN_EPN}{3}
\bibcite{IHSMarkit}{4}
\bibcite{informe_epn}{5}
\bibcite{RoadToSDN}{6}
\bibcite{lecturesdn}{7}
\bibcite{tesis_alto}{8}
\bibcite{FromStattoSDN}{9}
\bibcite{tesis_epn}{10}
\bibcite{SDN_arch}{11}
\bibcite{Review}{12}
\bibcite{Sushant}{13}
\bibcite{openNF}{14}
\bibcite{VNdummies}{15}
\bibcite{NFV_art}{16}
\bibcite{VNF}{17}
\bibcite{Hussain}{18}
\bibcite{Valencia}{19}
\bibcite{Bindhu}{20}
\bibcite{Gintert}{21}
\bibcite{rcwireless}{22}
\bibcite{forces}{23}
\bibcite{history_openF}{24}
\bibcite{yi2009investigation}{25}
\bibcite{ramezani2007ofdm}{26}
\bibcite{SDN}{27}
\@writefile{toc}{\contentsline {chapter}{BIBLIOGRAF\IeC {\'I}A}{\@c \c@page }{chapter*.47}\protected@file@percent }
